{
  "Version": "2012-10-17",
  "Statement": [
    {
      "Effect": "Allow",
      "Action": [
        "cloudwatch:PutMetricData",
        "cloudwatch:GetMetricStatistics",
	"cloudwatch:DescribeAlarmsForMetric"
      ],
      "Resource": [
        "*"
      ]
    },
    {
      "Effect": "Allow",
      "Action": [
        "logs:CreateLogStream",
        "logs:FilterLogEvents",
        "logs:GetLogEvents",
        "logs:PutLogEvents"
      ],
      "Resource": [
        "arn:aws:logs:us-east-1:655772981054:log-group:{{cFQDN}}/*:log-stream:*"
      ]
    }
  ]
}
