{
  "Version": "2012-10-17",
  "Statement": [
    {
      "Effect": "Allow",
      "Action": [
        "route53:ChangeResourceRecordSets"
      ],
      "Resource": [
        "arn:aws:route53:::{{route53Zone}}"
      ]
    },
    {
      "Effect": "Allow",
      "Action": [
        "route53:CreateHealthCheck",
        "route53:DeleteHealthCheck"
      ],
      "Resource": [
        "*"
      ]
    },
    {
      "Effect": "Allow",
      "Action": [
        "route53:ChangeTagsForResource"
      ],
      "Resource": [
        "arn:aws:route53:::healthcheck/*"
      ]
    }
  ]
}
